{"url": "/url1", "timestamp": "2018-01-02T22:35:52.620579", "sessionId": "d2ef9462-888b-4af5-8bb4-636b812545c7", "experiments": "no-ads", "userId": 3}
{"url": "/url1", "timestamp": "2018-01-02T22:35:55.620579", "sessionId": "2bd29fba-131a-4980-8287-b4cb0fe4286c", "experiments": "full-screen-ads", "userId": 8}
{"url": "/url2", "timestamp": "2018-01-02T22:35:58.620579", "sessionId": "e026a936-54df-486a-b672-128f3f570fea", "experiments": "full-screen-ads", "userId": 7}
{"url": "/url3", "timestamp": "2018-01-02T22:36:00.620579", "sessionId": "9bf146a2-f885-41be-8afa-5be4bba5c36f", "experiments": "full-screen-ads", "userId": 9}
{"url": "/url4", "timestamp": "2018-01-02T22:36:01.620579", "sessionId": "b8c527ec-779a-4032-b5ac-cc488cad8f7e", "experiments": "full-screen-ads", "userId": 4}
{"url": "/url4", "timestamp": "2018-01-02T22:36:05.620579", "sessionId": "e026a936-54df-486a-b672-128f3f570fea", "experiments": "full-screen-ads", "userId": 7}
{"url": "/url5", "timestamp": "2018-01-02T22:36:07.620579", "sessionId": "71d3dcd3-292f-458c-b9ee-efca894ff855", "experiments": "full-screen-ads", "userId": 2}
{"url": "/url5", "timestamp": "2018-01-02T22:36:09.620579", "sessionId": "6c8de33e-a1ad-4f77-9de3-93663e00ec7e", "experiments": "full-screen-ads", "userId": 1}
{"url": "/url2", "timestamp": "2018-01-02T22:36:11.620579", "sessionId": "b8c527ec-779a-4032-b5ac-cc488cad8f7e", "experiments": "full-screen-ads", "userId": 4}
{"url": "/url6", "timestamp": "2018-01-02T22:36:14.620579", "sessionId": "e026a936-54df-486a-b672-128f3f570fea", "experiments": "full-screen-ads", "userId": 7}
{"url": "/url3", "timestamp": "2018-01-02T22:36:15.620579", "sessionId": "71d3dcd3-292f-458c-b9ee-efca894ff855", "experiments": "full-screen-ads", "userId": 2}
{"url": "/url3", "timestamp": "2018-01-02T22:36:18.620579", "sessionId": "fbfeb17c-eae1-43e6-9c82-1ad64dac5278", "experiments": "no-ads", "userId": 6}
{"url": "/url2", "timestamp": "2018-01-02T22:36:20.620579", "sessionId": "d2ef9462-888b-4af5-8bb4-636b812545c7", "experiments": "no-ads", "userId": 3}
{"url": "/url1", "timestamp": "2018-01-02T22:36:21.620579", "sessionId": "cf05d789-ba70-4337-abe6-a52dc012cbcd", "experiments": "full-screen-ads", "userId": 5}
{"url": "/url5", "timestamp": "2018-01-02T22:36:24.620579", "sessionId": "d2ef9462-888b-4af5-8bb4-636b812545c7", "experiments": "no-ads", "userId": 3}
{"url": "/url2", "timestamp": "2018-01-02T22:36:27.620579", "sessionId": "cf05d789-ba70-4337-abe6-a52dc012cbcd", "experiments": "full-screen-ads", "userId": 5}
{"url": "/url4", "timestamp": "2018-01-02T22:36:31.620579", "sessionId": "cf05d789-ba70-4337-abe6-a52dc012cbcd", "experiments": "full-screen-ads", "userId": 5}
{"url": "/url6", "timestamp": "2018-01-02T22:36:32.620579", "sessionId": "6c8de33e-a1ad-4f77-9de3-93663e00ec7e", "experiments": "full-screen-ads", "userId": 1}
{"url": "/url6", "timestamp": "2018-01-02T22:36:34.620579", "sessionId": "e026a936-54df-486a-b672-128f3f570fea", "experiments": "full-screen-ads", "userId": 7}
{"url": "/url1", "timestamp": "2018-01-02T22:36:35.620579", "sessionId": "fbfeb17c-eae1-43e6-9c82-1ad64dac5278", "experiments": "no-ads", "userId": 6}
{"url": "/url5", "timestamp": "2018-01-02T22:36:36.620579", "sessionId": "d2ef9462-888b-4af5-8bb4-636b812545c7", "experiments": "no-ads", "userId": 3}
{"url": "/url7", "timestamp": "2018-01-02T22:36:39.620579", "sessionId": "cf05d789-ba70-4337-abe6-a52dc012cbcd", "experiments": "full-screen-ads", "userId": 5}
{"url": "/url8", "timestamp": "2018-01-02T22:36:40.620579", "sessionId": "b8c527ec-779a-4032-b5ac-cc488cad8f7e", "experiments": "full-screen-ads", "userId": 4}
{"url": "/url5", "timestamp": "2018-01-02T22:36:44.620579", "sessionId": "e026a936-54df-486a-b672-128f3f570fea", "experiments": "full-screen-ads", "userId": 7}
{"url": "/url6", "timestamp": "2018-01-02T22:36:47.620579", "sessionId": "2bd29fba-131a-4980-8287-b4cb0fe4286c", "experiments": "full-screen-ads", "userId": 8}
{"url": "/url5", "timestamp": "2018-01-02T22:36:51.620579", "sessionId": "2bd29fba-131a-4980-8287-b4cb0fe4286c", "experiments": "full-screen-ads", "userId": 8}
{"url": "/url7", "timestamp": "2018-01-02T22:36:52.620579", "sessionId": "d2ef9462-888b-4af5-8bb4-636b812545c7", "experiments": "no-ads", "userId": 3}
{"url": "/url2", "timestamp": "2018-01-02T22:36:53.620579", "sessionId": "e026a936-54df-486a-b672-128f3f570fea", "experiments": "full-screen-ads", "userId": 7}